<?xml version="1.0" encoding="UTF-8"?>
<svg width="66px" height="109px" viewBox="0 0 66 109" version="1.1" xmlns="http://www.w3.org/2000/svg" xmlns:xlink="http://www.w3.org/1999/xlink">
    <!-- Generator: Sketch 49.2 (51160) - http://www.bohemiancoding.com/sketch -->
    <title>business-icon-3</title>
    <desc>Created with Sketch.</desc>
    <defs></defs>
    <g id="Page-1" stroke="none" stroke-width="1" fill="none" fill-rule="evenodd">
        <g id="Home---Business-Tab-Open" transform="translate(-1327.000000, -4905.000000)">
            <g id="Benefits" transform="translate(0.000000, 4548.000000)">
                <g id="business-icon-3" transform="translate(1327.000000, 357.000000)">
                    <path d="M58.9613546,0 L7.03951366,0 C3.15240989,0 0,3.05029687 0,6.8125 L0,102.1875 C0,105.949703 3.15240989,109 7.03951366,109 L58.9604862,109 C62.8484584,109 65.9999998,105.949703 65.9999998,102.1875 L65.9999998,6.8125 C66.0008683,3.05029687 62.8484584,0 58.9613546,0 Z" id="Path-Copy-3" fill="#FFFFFF"></path>
                    <path d="M16.1526684,50.6529412 C17.9242321,50.6529412 19.3616028,49.2123033 19.3616028,47.4358583 C19.3616028,47.0624546 19.2857273,46.7104126 19.1697828,46.3780234 L27.2790771,36.1713688 C27.3148835,36.1730777 27.3489848,36.1824769 27.3847912,36.1824769 C27.7121638,36.1824769 28.0216333,36.119246 28.3191674,36.0269632 L35.4386707,40.5086629 C35.5963894,42.13643 36.9502118,43.4155729 38.6160614,43.4155729 C40.3884776,43.4155729 41.8258483,41.9740805 41.8258483,40.19849 C41.8258483,40.1523486 41.8139128,40.1104795 41.8122077,40.066047 L49.5182538,33.3293986 C49.6282306,33.3413612 49.7347972,33.362723 49.8481841,33.362723 C51.6206003,33.362723 53.0588235,31.9229396 53.0588235,30.1464946 C53.0588235,28.3700497 51.6214528,26.9294118 49.8481841,26.9294118 C48.0766205,26.9294118 46.6392498,28.3700497 46.6392498,30.1464946 C46.6392498,30.5019545 46.7108625,30.8369071 46.8165766,31.1564792 L39.8633172,37.2334761 C39.2708067,36.8267479 37.9024912,36.6840513 36.9834606,37.4428214 L30.5502463,33.3951929 C30.569002,33.2524962 30.5937255,33.112363 30.5937255,32.9645396 C30.5937255,31.1880946 29.1563548,29.7483112 27.3839386,29.7483112 C25.6115224,29.7483112 24.1741517,31.1880946 24.1741517,32.9645396 C24.1741517,33.422536 24.272193,33.8557527 24.4444047,34.2505182 L16.4962392,44.2538088 C16.3811473,44.2409917 16.2694654,44.2187755 16.1509633,44.2187755 C14.3785472,44.2187755 12.9411765,45.6585589 12.9411765,47.4358583 C12.9437341,49.2123033 14.3802522,50.6529412 16.1526684,50.6529412 Z" id="Shape" fill="#CA2564" fill-rule="nonzero"></path>
                    <path d="M58.9613546,0 L7.03951366,0 C3.15240989,0 0,3.05029687 0,6.8125 L0,102.1875 C0,105.949703 3.15240989,109 7.03951366,109 L58.9604862,109 C62.8484584,109 65.9999998,105.949703 65.9999998,102.1875 L65.9999998,6.8125 C66.0008683,3.05029687 62.8484584,0 58.9613546,0 Z M62.5271383,102.1875 C62.5271383,104.066047 60.9274857,105.59375 58.9613546,105.59375 L7.03951366,105.59375 C5.07338253,105.59375 3.47372991,104.066047 3.47372991,102.1875 L3.47372991,95.375 L62.5271383,95.375 L62.5271383,102.1875 Z M62.5271383,91.96875 L45.1584888,91.96875 L45.1584888,48.5390625 C45.1584888,47.5989375 44.3803733,46.8359375 43.4216239,46.8359375 C42.462006,46.8359375 41.6847589,47.5989375 41.6847589,48.5390625 L41.6847589,91.96875 L38.211029,91.96875 L38.211029,57.90625 C38.211029,56.966125 37.4329135,56.203125 36.474164,56.203125 C35.5145461,56.203125 34.7372991,56.966125 34.7372991,57.90625 L34.7372991,91.96875 L31.2635692,91.96875 L31.2635692,51.09375 C31.2635692,50.153625 30.4854537,49.390625 29.5267042,49.390625 C28.5670863,49.390625 27.7898393,50.153625 27.7898393,51.09375 L27.7898393,91.96875 L24.3161094,91.96875 L24.3161094,64.71875 C24.3161094,63.778625 23.5379939,63.015625 22.5792444,63.015625 C21.6196265,63.015625 20.8423794,63.778625 20.8423794,64.71875 L20.8423794,91.96875 L3.47372991,91.96875 L3.47372991,17.03125 L62.5271383,17.03125 L62.5271383,91.96875 Z M62.5271383,13.625 L3.47372991,13.625 L3.47372991,6.8125 C3.47372991,4.93395313 5.07338253,3.40625 7.03951366,3.40625 L58.9604862,3.40625 C60.9274857,3.40625 62.5271383,4.93395312 62.5271383,6.8125 L62.5271383,13.625 Z" id="Shape" fill="#000000" fill-rule="nonzero"></path>
                    <path d="M39.7294118,7.05294118 L26.2705882,7.05294118 C25.3410882,7.05294118 24.5882353,7.77105882 24.5882353,8.65588235 C24.5882353,9.54070588 25.3410882,10.2588235 26.2705882,10.2588235 L39.7294118,10.2588235 C40.6580706,10.2588235 41.4117647,9.54070588 41.4117647,8.65588235 C41.4117647,7.77105882 40.6580706,7.05294118 39.7294118,7.05294118 Z" id="Shape" fill="#000000" fill-rule="nonzero"></path>
                    <path d="M25.0196078,101.947059 L42.2745098,101.947059 C43.2269804,101.947059 44,101.228941 44,100.344118 C44,99.4592941 43.2269804,98.7411765 42.2745098,98.7411765 L25.0196078,98.7411765 C24.0662745,98.7411765 23.2941176,99.4592941 23.2941176,100.344118 C23.2941176,101.228941 24.0662745,101.947059 25.0196078,101.947059 Z" id="Shape" fill="#000000" fill-rule="nonzero"></path>
                </g>
            </g>
        </g>
    </g>
</svg>