<?xml version="1.0" encoding="UTF-8"?>
<svg width="124px" height="99px" viewBox="0 0 124 99" version="1.1" xmlns="http://www.w3.org/2000/svg" xmlns:xlink="http://www.w3.org/1999/xlink">
    <!-- Generator: Sketch 49.2 (51160) - http://www.bohemiancoding.com/sketch -->
    <title>customer-icon-5</title>
    <desc>Created with Sketch.</desc>
    <defs></defs>
    <g id="Page-1" stroke="none" stroke-width="1" fill="none" fill-rule="evenodd">
        <g id="Home---Customer-Tab-Open" transform="translate(-1098.000000, -5231.000000)">
            <g id="Benefits" transform="translate(0.000000, 4548.000000)">
                <g id="customer-icon-5" transform="translate(1098.000000, 683.000000)">
                    <path d="M79.457681,0 C78.3436185,0 77.3728535,0.587072814 76.9853535,1.75715591 L73.160806,10.5937212 L12.9166667,10.5937212 C5.68333333,10.5937212 0,16.3141275 0,23.5946446 L0,59.9972299 C0,67.277747 5.68333333,72.9981532 12.9166667,72.9981532 L15.5,72.9981532 L15.5,85.9990765 C15.5,87.0391504 16.0207029,88.0812576 17.0540362,88.0812576 C17.0540367,88.6012946 17.5666667,88.5992612 18.0833333,88.5992612 C18.6,88.5992612 19.1207034,88.6012946 19.6373695,88.0812576 L39.7792982,72.9981532 L46.1770833,72.9981532 L38.75,90.1634335 C38.2333333,91.7235443 38.7540352,93.2795936 40.3040352,93.7996305 L41.3333333,93.7996305 C42.3666667,93.7996305 43.4,93.2755321 43.9166667,92.2354583 L47.7613952,83.3582666 C48.227196,83.383738 48.7052522,83.3988919 49.0833333,83.3988919 L84.2207018,83.3988919 L104.362632,98.4819963 C104.879298,99.0020332 105.4,98.9999999 105.916667,98.9999999 C106.433333,98.9999999 106.429298,99.0020332 106.945965,98.4819963 C107.979298,98.4819963 108.5,97.4398891 108.5,96.3998152 L108.5,83.3988919 L111.083333,83.3988919 C118.316667,83.3988919 124,77.6784856 124,70.3979686 L124,33.9953832 C124,26.7148662 118.316667,20.9944599 111.083333,20.9944599 L74.7249368,20.9944599 L82.1520202,3.82917859 C82.6686868,2.78910472 82.1479798,1.23305645 80.5979798,0.192982586 C80.2104798,0.0629733524 79.8290352,0 79.457681,0 Z" id="Path-Copy-2" fill="#E3EC28"></path>
                    <path d="M79.457681,0 C78.3436185,0 77.3728535,0.587072814 76.9853535,1.75715591 L73.160806,10.5937212 L12.9166667,10.5937212 C5.68333333,10.5937212 0,16.3141275 0,23.5946446 L0,59.9972299 C0,67.277747 5.68333333,72.9981532 12.9166667,72.9981532 L15.5,72.9981532 L15.5,85.9990765 C15.5,87.0391504 16.0207029,88.0812576 17.0540362,88.0812576 C17.0540367,88.6012946 17.5666667,88.5992612 18.0833333,88.5992612 C18.6,88.5992612 19.1207034,88.6012946 19.6373695,88.0812576 L39.7792982,72.9981532 L46.1770833,72.9981532 L38.75,90.1634335 C38.2333333,91.7235443 38.7540352,93.2795936 40.3040352,93.7996305 L41.3333333,93.7996305 C42.3666667,93.7996305 43.4,93.2755321 43.9166667,92.2354583 L47.7613952,83.3582666 C48.227196,83.383738 48.7052522,83.3988919 49.0833333,83.3988919 L84.2207018,83.3988919 L104.362632,98.4819963 C104.879298,99.0020332 105.4,98.9999999 105.916667,98.9999999 C106.433333,98.9999999 106.429298,99.0020332 106.945965,98.4819963 C107.979298,98.4819963 108.5,97.4398891 108.5,96.3998152 L108.5,83.3988919 L111.083333,83.3988919 C118.316667,83.3988919 124,77.6784856 124,70.3979686 L124,33.9953832 C124,26.7148662 118.316667,20.9944599 111.083333,20.9944599 L74.7249368,20.9944599 L82.1520202,3.82917859 C82.6686868,2.78910472 82.1479798,1.23305645 80.5979798,0.192982586 C80.2104798,0.0629733524 79.8290352,0 79.457681,0 Z M12.9166667,15.7940906 L70.9104798,15.7940906 L51.1722012,61.4395211 C51.6227603,59.9211017 51.1188088,58.4214244 50.1126315,57.9150488 C45.9129117,55.7008512 42.2815923,52.6909554 39.3453757,49.1597434 C43.1210052,44.0552793 45.496685,37.9153332 46.2376315,31.3951986 L49.0833333,31.3951986 C50.6333333,31.3951986 51.6666667,30.3551247 51.6666667,28.7950139 C51.6666667,27.2349031 50.6333333,26.1948292 49.0833333,26.1948292 L38.75,26.1948292 L38.75,23.5946446 C38.75,22.0345338 37.7166667,20.9944599 36.1666667,20.9944599 C34.6166667,20.9944599 33.5833333,22.0345338 33.5833333,23.5946446 L33.5833333,26.1948292 L23.25,26.1948292 C21.7,26.1948292 20.6666667,27.2349031 20.6666667,28.7950139 C20.6666667,30.3551247 21.7,31.3951986 23.25,31.3951986 L26.5800779,31.3951986 C27.1887122,37.6544151 29.3773618,43.7215976 32.897138,48.9870704 C31.2612628,50.7496523 29.4218825,52.352999 27.3873695,53.7608482 C25.8373695,54.8009221 25.8313152,56.3569714 26.3479819,57.3970452 C26.8646486,57.9170822 27.3833333,58.4330576 28.4166667,58.4330576 C28.9333333,58.4330576 29.4540367,58.4350858 29.9707029,57.9150488 C32.1762278,56.5130032 34.1680605,54.8526553 35.9850273,53.0193899 C39.20167,56.7076895 43.083087,59.8418013 47.5292982,62.079411 C47.5292982,62.5994479 48.0520202,62.5974146 48.5686868,62.5974146 C49.0782597,62.5974146 50.0926055,62.094518 51.111653,61.58172 L48.4274095,67.7977839 L38.75,67.7977839 C38.2333333,67.7977839 37.7126315,67.7957505 37.1959648,68.3157875 L20.6666667,80.7987072 L20.6666667,70.3979686 C20.6666667,68.8378578 19.6333333,67.7977839 18.0833333,67.7977839 L12.9166667,67.7977839 C8.78333333,67.7977839 5.16666667,64.1575254 5.16666667,59.9972299 L5.16666667,23.5946446 C5.16666667,19.4343491 8.78333333,15.7940906 12.9166667,15.7940906 Z M72.4746107,26.1948292 L111.083333,26.1948292 C115.216667,26.1948292 118.833333,29.8350878 118.833333,33.9953832 L118.833333,70.3979686 C118.833333,74.558264 115.216667,78.1985226 111.083333,78.1985226 L105.916667,78.1985226 C104.366667,78.1985226 103.333333,79.2385964 103.333333,80.7987072 L103.333333,91.1994459 L86.8040352,79.2345349 C86.2873685,78.714498 85.7666667,78.7165261 85.25,78.7165261 L49.7594382,78.7165261 L72.4746107,26.1948292 Z M31.756834,31.3951986 L41.0507787,31.3951986 C40.4255965,36.2753188 38.7582718,40.7517187 36.2070287,44.6703582 C33.8039707,40.6239716 32.2741207,36.1158442 31.756834,31.3951986 Z" id="Shape" fill="#000000" fill-rule="nonzero"></path>
                    <path d="M80.0833333,36.5955679 L90.4166667,36.5955679 C94.55,36.5955679 98.1666667,40.2358264 98.1666667,44.3961219 L98.1666667,65.1975992 C98.1666667,66.75771 97.1333333,67.7977839 95.5833333,67.7977839 C94.0333333,67.7977839 93,66.75771 93,65.1975992 L93,57.3970452 L77.5,57.3970452 L77.5,65.1975992 C77.5,66.75771 76.4666667,67.7977839 74.9166667,67.7977839 C73.3666667,67.7977839 72.3333333,66.75771 72.3333333,65.1975992 L72.3333333,44.3961219 C72.3333333,40.2358264 75.95,36.5955679 80.0833333,36.5955679 Z M80.0833333,41.7959372 C78.5333333,41.7959372 77.5,42.8360111 77.5,44.3961219 L77.5,52.1966759 L93,52.1966759 L93,44.3961219 C93,42.8360111 91.9666667,41.7959372 90.4166667,41.7959372 L80.0833333,41.7959372 Z" id="Combined-Shape" fill="#CA2564"></path>
                </g>
            </g>
        </g>
    </g>
</svg>