<?xml version="1.0" encoding="UTF-8"?>
<svg width="72px" height="114px" viewBox="0 0 72 114" version="1.1" xmlns="http://www.w3.org/2000/svg" xmlns:xlink="http://www.w3.org/1999/xlink">
    <!-- Generator: Sketch 49.2 (51160) - http://www.bohemiancoding.com/sketch -->
    <title>customer-icon-3</title>
    <desc>Created with Sketch.</desc>
    <defs></defs>
    <g id="Page-1" stroke="none" stroke-width="1" fill="none" fill-rule="evenodd">
        <g id="Home---Customer-Tab-Open" transform="translate(-1324.000000, -4904.000000)">
            <g id="Benefits" transform="translate(0.000000, 4548.000000)">
                <g id="customer-icon-3" transform="translate(1324.000000, 356.000000)">
                    <path d="M9.6,0 C4.331616,0 0,4.28640071 0,9.5 L0,104.5 C0,109.7136 4.331616,114 9.6,114 L62.4,114 C67.668384,114 72,109.7136 72,104.5 L72,9.5 C72,4.28640071 67.668384,0 62.4,0 L9.6,0 Z" id="Path-Copy" fill="#E3EC28"></path>
                    <path d="M9.6,0 C4.331616,0 0,4.28640071 0,9.5 L0,104.5 C0,109.7136 4.331616,114 9.6,114 L62.4,114 C67.668384,114 72,109.7136 72,104.5 L72,9.5 C72,4.28640071 67.668384,0 62.4,0 L9.6,0 Z M9.6,4.75 L62.4,4.75 C65.046336,4.75 67.2,6.88108821 67.2,9.5 L67.2,19 L4.8,19 L4.8,9.5 C4.8,6.88108821 6.953664,4.75 9.6,4.75 Z M31.2,9.5 C29.8704,9.5 28.8,10.55925 28.8,11.875 C28.8,13.19075 29.8704,14.25 31.2,14.25 L40.8,14.25 C42.1296,14.25 43.2,13.19075 43.2,11.875 C43.2,10.55925 42.1296,9.5 40.8,9.5 L31.2,9.5 Z M4.8,23.75 L67.2,23.75 L67.2,90.25 L4.8,90.25 L4.8,23.75 Z M4.8,95 L67.2,95 L67.2,104.5 C67.2,107.118912 65.046336,109.25 62.4,109.25 L9.6,109.25 C6.953664,109.25 4.8,107.118912 4.8,104.5 L4.8,95 Z M36,99.75 C34.6745166,99.75 33.6,100.813324 33.6,102.125 C33.6,103.436676 34.6745166,104.5 36,104.5 C37.3254834,104.5 38.4,103.436676 38.4,102.125 C38.4,100.813324 37.3254834,99.75 36,99.75 Z" id="Shape" fill="#000000" fill-rule="nonzero"></path>
                    <path d="M47.9906256,42.75 C47.3636016,42.751216 46.7539632,42.9956249 46.2984384,43.4458014 L22.3031256,67.191163 C21.6966456,67.792228 21.4575432,68.6668621 21.6796872,69.4873035 C21.9021672,70.3083434 22.5515448,70.9510279 23.3812512,71.1711429 C24.2102832,71.3910679 25.0941696,71.1544324 25.7015616,70.5541986 L49.6968744,46.808837 C50.3033784,46.2077957 50.5424328,45.3331379 50.3203128,44.5126965 C50.0978328,43.6916566 49.4484312,43.0489721 48.6187488,42.8288571 C48.411492,42.7738759 48.199632,42.7495939 47.9906256,42.75 Z" id="Path" fill="#CA2564" transform="translate(35.999997, 57.000970) rotate(-23.000000) translate(-35.999997, -57.000970) "></path>
                </g>
            </g>
        </g>
    </g>
</svg>